{
    "Domains":[
        {
            "username" : "Foo",
            "password" : "Foo_pw",
            "domain" : "subdomain.example.com"
        },
        {
            "username" : "Bar",
            "password" : "Bar_pw",
            "domain" : "othersubdomain.example.com"
        }

    ]
}